tidy_ae_table — tidy_ae_table • forestly
…
#> Joining, by = "treatment"
#> $table
#> # A tibble: 194 x 8
#>    ae                              stratum   n_1   n_2   N_1   N_2 pct_1 pct_2
#>    <chr>                           <chr>   <int> <int> <int> <int> <dbl> <dbl>
#>  1 ABDOMINAL DISCOMFORT            All         1     0    84    86  1.19  0   
#>  2 ABDOMINAL PAIN                  All         2     1    84    86  2.38  1.16
#>  3 ACROCHORDON EXCISION            All         1     0    84    86  1.19  0   
#>  4 ACTINIC KERATOSIS               All         1     0    84    86  1.19  0   
#>  5 AGITATION                       All         1     2    84    86  1.19  2.33
#>  6 ALCOHOL USE                     All         1     0    84    86  1.19  0   
#>  7 ALLERGIC GRANULOMATOUS ANGIITIS All         1     0    84    86  1.19  0   
#>  8 AMNESIA                         All         2     0    84    86  2.38  0   
#>  9 APPLICATION SITE DERMATITIS     All        12     9    84    86 14.3  10.5 
#> 10 APPLICATION SITE DISCHARGE      All         1     0    84    86  1.19  0   
#> # … with 184 more rows
#> 
#> $listing
#> # A tibble: 756 x 57
#>    USUBJID ae    treatment STUDYID SITEID TRTA  TRTAN   AGE AGEGR1 AGEGR1N RACE 
#>    <chr>   <chr> <fct>     <chr>   <chr>  <chr> <dbl> <dbl> <chr>    <dbl> <chr>
#>  1 01-701… APPL… Placebo   CDISCP… 701    Plac…     0    63 <65          1 WHITE
#>  2 01-701… APPL… Placebo   CDISCP… 701    Plac…     0    63 <65          1 WHITE
#>  3 01-701… DIAR… Placebo   CDISCP… 701    Plac…     0    63 <65          1 WHITE
#>  4 01-701… ERYT… Placebo   CDISCP… 701    Plac…     0    64 <65          1 WHITE
#>  5 01-701… ERYT… Placebo   CDISCP… 701    Plac…     0    64 <65          1 WHITE
#>  6 01-701… ATRI… Placebo   CDISCP… 701    Plac…     0    64 <65          1 WHITE
#>  7 01-701… ERYT… Placebo   CDISCP… 701    Plac…     0    64 <65          1 WHITE
#>  8 01-701… APPL… MK9999    CDISCP… 701    Xano…    81    71 65-80        2 WHITE
#>  9 01-701… APPL… MK9999    CDISCP… 701    Xano…    81    71 65-80        2 WHITE
#> 10 01-701… APPL… MK9999    CDISCP… 701    Xano…    81    77 65-80        2 WHITE
#> # … with 746 more rows, and 46 more variables: RACEN <dbl>, SEX <chr>,
#> #   SAFFL <chr>, TRTSDT <date>, TRTEDT <date>, ASTDT <date>, ASTDTF <chr>,
#> #   ASTDY <dbl>, AENDT <date>, AENDY <dbl>, ADURN <dbl>, ADURU <chr>,
#> #   AETERM <chr>, AELLT <chr>, AELLTCD <dbl>, AEDECOD <chr>, AEPTCD <dbl>,
#> #   AEHLT <chr>, AEHLTCD <dbl>, AEHLGT <chr>, AEHLGTCD <dbl>, AEBODSYS <chr>,
#> #   AESOC <chr>, AESOCCD <dbl>, AESEV <chr>, AESER <chr>, AESCAN <chr>,
#> #   AESCONG <chr>, AESDISAB <chr>, AESDTH <chr>, AESHOSP <chr>, AESLIFE <chr>,
#> #   AESOD <chr>, AEREL <chr>, AEACN <chr>, AEOUT <chr>, AESEQ <dbl>,
#> #   TRTEMFL <chr>, AOCCFL <chr>, AOCCSFL <chr>, AOCCPFL <chr>, AOCC02FL <chr>,
…
