tidy_population — tidy_population • forestly
…
tidy_population(population_from = adsl)

#> # A tibble: 254 × 3
#>    USUBJID     treatment            stratum
#>    <chr>       <fct>                <chr>  
#>  1 01-701-1015 Placebo              All    
#>  2 01-701-1023 Placebo              All    
#>  3 01-701-1028 Xanomeline High Dose All    
#>  4 01-701-1033 Xanomeline Low Dose  All    
#>  5 01-701-1034 Xanomeline High Dose All    
#>  6 01-701-1047 Placebo              All    
#>  7 01-701-1097 Xanomeline Low Dose  All    
#>  8 01-701-1111 Xanomeline Low Dose  All    
#>  9 01-701-1115 Xanomeline Low Dose  All    
#> 10 01-701-1118 Placebo              All    
#> # … with 244 more rows
tidy_population(population_from = adsl, stratum_var = "RACE")

#> # A tibble: 254 × 3
#>    USUBJID     treatment            stratum
#>    <chr>       <fct>                <chr>  
#>  1 01-701-1015 Placebo              WHITE  
#>  2 01-701-1023 Placebo              WHITE  
#>  3 01-701-1028 Xanomeline High Dose WHITE  
#>  4 01-701-1033 Xanomeline Low Dose  WHITE  
#>  5 01-701-1034 Xanomeline High Dose WHITE  
#>  6 01-701-1047 Placebo              WHITE  
#>  7 01-701-1097 Xanomeline Low Dose  WHITE  
#>  8 01-701-1111 Xanomeline Low Dose  WHITE  
#>  9 01-701-1115 Xanomeline Low Dose  WHITE  
#> 10 01-701-1118 Placebo              WHITE  
#> # … with 244 more rows
…
